{
    "data": [
        [0, {"ticksize": 0.001, "lotsize": 0.1, "min_order_size": 0.1, "price_precision": 3.0, "qty_precision": 4.0, "multiple": 1.0, "coin": "CELO", "base_coin": "USD", "local_name": "CELO-USD", "ct_type": false}]
    ]
}