{
    "data": [
        [0, {"ticksize": 0.01, "lotsize": 0.001, "min_order_size": 0.001, "price_precision": 2.0, "qty_precision": 4.0, "multiple": 1.0, "coin": "ETH", "base_coin": "SGD", "local_name": "ETH-SGD", "ct_type": false}]
    ]
}