{
    "data": [
        [0, {"ticksize": 1e-06, "lotsize": 10.0, "min_order_size": 10.0, "price_precision": 6.0, "qty_precision": 6.0, "multiple": 1.0, "coin": "ONE", "base_coin": "USD", "local_name": "ONE-USD", "ct_type": false}]
    ]
}