{
    "data": [
        [0, {"ticksize": 0.0001, "lotsize": 1e-05, "min_order_size": 1e-05, "price_precision": 4.0, "qty_precision": 4.0, "multiple": 1.0, "coin": "XBTC", "base_coin": "BTC", "local_name": "XBTC-BTC", "ct_type": false}]
    ]
}