{
    "data": [
        [0, {"ticksize": 1.0, "lotsize": 1e-05, "min_order_size": 1e-05, "price_precision": 0.0, "qty_precision": 5.0, "multiple": 1.0, "coin": "ADAHALF", "base_coin": "USD", "local_name": "ADAHALF/USD", "ct_type": false}], 
        [20220702, {"ticksize": 1.0, "lotsize": 1e-05, "min_order_size": 1e-05, "price_precision": 0.0, "qty_precision": 5.0, "multiple": 1.0, "coin": "ADAHALF", "base_coin": "USD", "local_name": "ADAHALF/USD", "ct_type": false}], 
        [20220811, {"ticksize": 2.5, "lotsize": 1e-06, "min_order_size": 1e-06, "price_precision": 0.3979400086720376, "qty_precision": 6.0, "multiple": 1.0, "coin": "ADAHALF", "base_coin": "USD", "local_name": "ADAHALF/USD", "ct_type": false}], 
        [20221008, {"ticksize": 1.0, "lotsize": 1e-05, "min_order_size": 1e-05, "price_precision": 0.0, "qty_precision": 5.0, "multiple": 1.0, "coin": "ADAHALF", "base_coin": "USD", "local_name": "ADAHALF/USD", "ct_type": false}]
    ]
}