{
    "data": [
        [0, {"ticksize": 0.00025, "lotsize": 1.0, "min_order_size": 1.0, "price_precision": 3.6020599913279625, "qty_precision": 0.0, "multiple": 1.0, "coin": "AURY", "base_coin": "USD", "local_name": "AURY/USD", "ct_type": false}], 
        [20220702, {"ticksize": 0.00025, "lotsize": 1.0, "min_order_size": 1.0, "price_precision": 3.6020599913279625, "qty_precision": 0.0, "multiple": 1.0, "coin": "AURY", "base_coin": "USD", "local_name": "AURY/USD", "ct_type": false}]
    ]
}