{
    "data": [
        [0, {"ticksize": 0.0005, "lotsize": 0.1, "min_order_size": 0.1, "price_precision": 3.3010299956639813, "qty_precision": 1.0, "multiple": 1.0, "coin": "AVAX", "base_coin": "USDT", "local_name": "AVAX/USDT", "ct_type": false}], 
        [20220702, {"ticksize": 0.0005, "lotsize": 0.1, "min_order_size": 0.1, "price_precision": 3.3010299956639813, "qty_precision": 1.0, "multiple": 1.0, "coin": "AVAX", "base_coin": "USDT", "local_name": "AVAX/USDT", "ct_type": false}]
    ]
}