{
    "data": [
        [0, {"ticksize": 1e-07, "lotsize": 100.0, "min_order_size": 100.0, "price_precision": 7.0, "qty_precision": 2.0, "multiple": 1.0, "coin": "BEAR", "base_coin": "USD", "local_name": "BEAR/USD", "ct_type": false}], 
        [20220702, {"ticksize": 1e-07, "lotsize": 100.0, "min_order_size": 100.0, "price_precision": 7.0, "qty_precision": 2.0, "multiple": 1.0, "coin": "BEAR", "base_coin": "USD", "local_name": "BEAR/USD", "ct_type": false}], 
        [20220703, {"ticksize": 1e-07, "lotsize": 1000.0, "min_order_size": 1000.0, "price_precision": 7.0, "qty_precision": 3.0, "multiple": 1.0, "coin": "BEAR", "base_coin": "USD", "local_name": "BEAR/USD", "ct_type": false}], 
        [20220718, {"ticksize": 5e-08, "lotsize": 1000.0, "min_order_size": 1000.0, "price_precision": 7.301029995663981, "qty_precision": 3.0, "multiple": 1.0, "coin": "BEAR", "base_coin": "USD", "local_name": "BEAR/USD", "ct_type": false}], 
        [20220811, {"ticksize": 1e-07, "lotsize": 1000.0, "min_order_size": 1000.0, "price_precision": 7.0, "qty_precision": 3.0, "multiple": 1.0, "coin": "BEAR", "base_coin": "USD", "local_name": "BEAR/USD", "ct_type": false}], 
        [20221008, {"ticksize": 5e-08, "lotsize": 1000.0, "min_order_size": 1000.0, "price_precision": 7.301029995663981, "qty_precision": 3.0, "multiple": 1.0, "coin": "BEAR", "base_coin": "USD", "local_name": "BEAR/USD", "ct_type": false}]
    ]
}