{
    "data": [
        [0, {"ticksize": 0.001, "lotsize": 0.01, "min_order_size": 0.01, "price_precision": 3.0, "qty_precision": 2.0, "multiple": 1.0, "coin": "BNB", "base_coin": "USDT", "local_name": "BNB/USDT", "ct_type": false}], 
        [20220702, {"ticksize": 0.001, "lotsize": 0.01, "min_order_size": 0.01, "price_precision": 3.0, "qty_precision": 2.0, "multiple": 1.0, "coin": "BNB", "base_coin": "USDT", "local_name": "BNB/USDT", "ct_type": false}], 
        [20221008, {"ticksize": 0.025, "lotsize": 0.01, "min_order_size": 0.01, "price_precision": 1.6020599913279623, "qty_precision": 2.0, "multiple": 1.0, "coin": "BNB", "base_coin": "USDT", "local_name": "BNB/USDT", "ct_type": false}]
    ]
}