{
    "data": [
        [0, {"ticksize": 1e-08, "lotsize": 1000000.0, "min_order_size": 1000000.0, "price_precision": 8.0, "qty_precision": 6.0, "multiple": 1.0, "coin": "BSVBULL", "base_coin": "USD", "local_name": "BSVBULL/USD", "ct_type": false}], 
        [20220702, {"ticksize": 1e-08, "lotsize": 1000000.0, "min_order_size": 1000000.0, "price_precision": 8.0, "qty_precision": 6.0, "multiple": 1.0, "coin": "BSVBULL", "base_coin": "USD", "local_name": "BSVBULL/USD", "ct_type": false}]
    ]
}