{
    "data": [
        [0, {"ticksize": 0.05, "lotsize": 0.01, "min_order_size": 0.01, "price_precision": 1.3010299956639813, "qty_precision": 2.0, "multiple": 1.0, "coin": "CREAM", "base_coin": "USDT", "local_name": "CREAM/USDT", "ct_type": false}], 
        [20220702, {"ticksize": 0.05, "lotsize": 0.01, "min_order_size": 0.01, "price_precision": 1.3010299956639813, "qty_precision": 2.0, "multiple": 1.0, "coin": "CREAM", "base_coin": "USDT", "local_name": "CREAM/USDT", "ct_type": false}], 
        [20221008, {"ticksize": 0.001, "lotsize": 0.01, "min_order_size": 0.01, "price_precision": 3.0, "qty_precision": 2.0, "multiple": 1.0, "coin": "CREAM", "base_coin": "USDT", "local_name": "CREAM/USDT", "ct_type": false}]
    ]
}