{
    "data": [
        [0, {"ticksize": 0.05, "lotsize": 1.0, "min_order_size": 1.0, "price_precision": 1.3010299956639813, "qty_precision": 0.0, "multiple": 1.0, "coin": "ENJ", "base_coin": "JPY", "local_name": "ENJ/JPY", "ct_type": false}], 
        [20220702, {"ticksize": 0.05, "lotsize": 1.0, "min_order_size": 1.0, "price_precision": 1.3010299956639813, "qty_precision": 0.0, "multiple": 1.0, "coin": "ENJ", "base_coin": "JPY", "local_name": "ENJ/JPY", "ct_type": false}]
    ]
}