{
    "data": [
        [0, {"ticksize": 0.25, "lotsize": 0.0001, "min_order_size": 0.0001, "price_precision": 0.6020599913279624, "qty_precision": 4.0, "multiple": 1.0, "coin": "EXCHBULL", "base_coin": "USD", "local_name": "EXCHBULL/USD", "ct_type": false}], 
        [20220702, {"ticksize": 0.25, "lotsize": 0.0001, "min_order_size": 0.0001, "price_precision": 0.6020599913279624, "qty_precision": 4.0, "multiple": 1.0, "coin": "EXCHBULL", "base_coin": "USD", "local_name": "EXCHBULL/USD", "ct_type": false}], 
        [20220811, {"ticksize": 0.5, "lotsize": 0.0001, "min_order_size": 0.0001, "price_precision": 0.3010299956639812, "qty_precision": 4.0, "multiple": 1.0, "coin": "EXCHBULL", "base_coin": "USD", "local_name": "EXCHBULL/USD", "ct_type": false}], 
        [20221008, {"ticksize": 0.25, "lotsize": 0.0001, "min_order_size": 0.0001, "price_precision": 0.6020599913279624, "qty_precision": 4.0, "multiple": 1.0, "coin": "EXCHBULL", "base_coin": "USD", "local_name": "EXCHBULL/USD", "ct_type": false}]
    ]
}