{
    "data": [
        [0, {"ticksize": 0.0025, "lotsize": 0.1, "min_order_size": 0.1, "price_precision": 2.6020599913279625, "qty_precision": 1.0, "multiple": 1.0, "coin": "FXS", "base_coin": "USD", "local_name": "FXS/USD", "ct_type": false}], 
        [20220702, {"ticksize": 0.0025, "lotsize": 0.1, "min_order_size": 0.1, "price_precision": 2.6020599913279625, "qty_precision": 1.0, "multiple": 1.0, "coin": "FXS", "base_coin": "USD", "local_name": "FXS/USD", "ct_type": false}]
    ]
}