{
    "data": [
        [0, {"ticksize": 2.5e-05, "lotsize": 1.0, "min_order_size": 1.0, "price_precision": 4.6020599913279625, "qty_precision": 0.0, "multiple": 1.0, "coin": "HTBULL", "base_coin": "USD", "local_name": "HTBULL/USD", "ct_type": false}], 
        [20220702, {"ticksize": 2.5e-05, "lotsize": 1.0, "min_order_size": 1.0, "price_precision": 4.6020599913279625, "qty_precision": 0.0, "multiple": 1.0, "coin": "HTBULL", "base_coin": "USD", "local_name": "HTBULL/USD", "ct_type": false}], 
        [20220811, {"ticksize": 5e-05, "lotsize": 1.0, "min_order_size": 1.0, "price_precision": 4.301029995663981, "qty_precision": 0.0, "multiple": 1.0, "coin": "HTBULL", "base_coin": "USD", "local_name": "HTBULL/USD", "ct_type": false}], 
        [20221008, {"ticksize": 1e-05, "lotsize": 1.0, "min_order_size": 1.0, "price_precision": 5.0, "qty_precision": 0.0, "multiple": 1.0, "coin": "HTBULL", "base_coin": "USD", "local_name": "HTBULL/USD", "ct_type": false}]
    ]
}