{
    "data": [
        [0, {"ticksize": 5e-08, "lotsize": 0.1, "min_order_size": 0.1, "price_precision": 7.301029995663981, "qty_precision": 1.0, "multiple": 1.0, "coin": "LINK", "base_coin": "BTC", "local_name": "LINK/BTC", "ct_type": false}], 
        [20220702, {"ticksize": 5e-08, "lotsize": 0.1, "min_order_size": 0.1, "price_precision": 7.301029995663981, "qty_precision": 1.0, "multiple": 1.0, "coin": "LINK", "base_coin": "BTC", "local_name": "LINK/BTC", "ct_type": false}]
    ]
}