{
    "data": [
        [0, {"ticksize": 0.5, "lotsize": 1e-05, "min_order_size": 1e-05, "price_precision": 0.3010299956639812, "qty_precision": 5.0, "multiple": 1.0, "coin": "LINKHALF", "base_coin": "USD", "local_name": "LINKHALF/USD", "ct_type": false}], 
        [20220702, {"ticksize": 0.5, "lotsize": 1e-05, "min_order_size": 1e-05, "price_precision": 0.3010299956639812, "qty_precision": 5.0, "multiple": 1.0, "coin": "LINKHALF", "base_coin": "USD", "local_name": "LINKHALF/USD", "ct_type": false}]
    ]
}