{
    "data": [
        [0, {"ticksize": 0.00025, "lotsize": 0.1, "min_order_size": 0.1, "price_precision": 3.6020599913279625, "qty_precision": 1.0, "multiple": 1.0, "coin": "LUA", "base_coin": "USDT", "local_name": "LUA/USDT", "ct_type": false}], 
        [20220702, {"ticksize": 0.00025, "lotsize": 0.1, "min_order_size": 0.1, "price_precision": 3.6020599913279625, "qty_precision": 1.0, "multiple": 1.0, "coin": "LUA", "base_coin": "USDT", "local_name": "LUA/USDT", "ct_type": false}], 
        [20221008, {"ticksize": 1e-06, "lotsize": 0.1, "min_order_size": 0.1, "price_precision": 6.0, "qty_precision": 1.0, "multiple": 1.0, "coin": "LUA", "base_coin": "USDT", "local_name": "LUA/USDT", "ct_type": false}]
    ]
}