{
    "data": [
        [0, {"ticksize": 1e-08, "lotsize": 10000.0, "min_order_size": 10000.0, "price_precision": 8.0, "qty_precision": 4.0, "multiple": 1.0, "coin": "MKRBEAR", "base_coin": "USD", "local_name": "MKRBEAR/USD", "ct_type": false}], 
        [20220702, {"ticksize": 1e-08, "lotsize": 10000.0, "min_order_size": 10000.0, "price_precision": 8.0, "qty_precision": 4.0, "multiple": 1.0, "coin": "MKRBEAR", "base_coin": "USD", "local_name": "MKRBEAR/USD", "ct_type": false}], 
        [20221008, {"ticksize": 1e-08, "lotsize": 100000.0, "min_order_size": 100000.0, "price_precision": 8.0, "qty_precision": 5.0, "multiple": 1.0, "coin": "MKRBEAR", "base_coin": "USD", "local_name": "MKRBEAR/USD", "ct_type": false}]
    ]
}