{
    "data": [
        [0, {"ticksize": 0.5, "lotsize": 0.001, "min_order_size": 0.001, "price_precision": 0.3010299956639812, "qty_precision": 3.0, "multiple": 1.0, "coin": "MKR", "base_coin": "USD", "local_name": "MKR/USD", "ct_type": false}], 
        [20220702, {"ticksize": 0.5, "lotsize": 0.001, "min_order_size": 0.001, "price_precision": 0.3010299956639812, "qty_precision": 3.0, "multiple": 1.0, "coin": "MKR", "base_coin": "USD", "local_name": "MKR/USD", "ct_type": false}]
    ]
}