{
    "data": [
        [0, {"ticksize": 2.5e-05, "lotsize": 0.1, "min_order_size": 0.1, "price_precision": 4.6020599913279625, "qty_precision": 1.0, "multiple": 1.0, "coin": "POLIS", "base_coin": "USD", "local_name": "POLIS/USD", "ct_type": false}], 
        [20220702, {"ticksize": 2.5e-05, "lotsize": 0.1, "min_order_size": 0.1, "price_precision": 4.6020599913279625, "qty_precision": 1.0, "multiple": 1.0, "coin": "POLIS", "base_coin": "USD", "local_name": "POLIS/USD", "ct_type": false}]
    ]
}