{
    "data": [
        [0, {"ticksize": 0.05, "lotsize": 0.0001, "min_order_size": 0.0001, "price_precision": 1.3010299956639813, "qty_precision": 4.0, "multiple": 1.0, "coin": "PRIVHEDGE", "base_coin": "USD", "local_name": "PRIVHEDGE/USD", "ct_type": false}], 
        [20220702, {"ticksize": 0.05, "lotsize": 0.0001, "min_order_size": 0.0001, "price_precision": 1.3010299956639813, "qty_precision": 4.0, "multiple": 1.0, "coin": "PRIVHEDGE", "base_coin": "USD", "local_name": "PRIVHEDGE/USD", "ct_type": false}], 
        [20220811, {"ticksize": 0.025, "lotsize": 0.001, "min_order_size": 0.001, "price_precision": 1.6020599913279623, "qty_precision": 3.0, "multiple": 1.0, "coin": "PRIVHEDGE", "base_coin": "USD", "local_name": "PRIVHEDGE/USD", "ct_type": false}], 
        [20221008, {"ticksize": 0.05, "lotsize": 0.0001, "min_order_size": 0.0001, "price_precision": 1.3010299956639813, "qty_precision": 4.0, "multiple": 1.0, "coin": "PRIVHEDGE", "base_coin": "USD", "local_name": "PRIVHEDGE/USD", "ct_type": false}]
    ]
}