{
    "data": [
        [0, {"ticksize": 1e-05, "lotsize": 10.0, "min_order_size": 10.0, "price_precision": 5.0, "qty_precision": 1.0, "multiple": 1.0, "coin": "QI", "base_coin": "USD", "local_name": "QI/USD", "ct_type": false}], 
        [20220702, {"ticksize": 1e-05, "lotsize": 10.0, "min_order_size": 10.0, "price_precision": 5.0, "qty_precision": 1.0, "multiple": 1.0, "coin": "QI", "base_coin": "USD", "local_name": "QI/USD", "ct_type": false}], 
        [20221008, {"ticksize": 1e-06, "lotsize": 10.0, "min_order_size": 10.0, "price_precision": 6.0, "qty_precision": 1.0, "multiple": 1.0, "coin": "QI", "base_coin": "USD", "local_name": "QI/USD", "ct_type": false}]
    ]
}