{
    "data": [
        [0, {"ticksize": 0.05, "lotsize": 0.001, "min_order_size": 0.001, "price_precision": 1.3010299956639813, "qty_precision": 3.0, "multiple": 1.0, "coin": "ROOK", "base_coin": "USDT", "local_name": "ROOK/USDT", "ct_type": false}], 
        [20220702, {"ticksize": 0.05, "lotsize": 0.001, "min_order_size": 0.001, "price_precision": 1.3010299956639813, "qty_precision": 3.0, "multiple": 1.0, "coin": "ROOK", "base_coin": "USDT", "local_name": "ROOK/USDT", "ct_type": false}], 
        [20221008, {"ticksize": 0.0025, "lotsize": 0.001, "min_order_size": 0.001, "price_precision": 2.6020599913279625, "qty_precision": 3.0, "multiple": 1.0, "coin": "ROOK", "base_coin": "USDT", "local_name": "ROOK/USDT", "ct_type": false}]
    ]
}