{
    "data": [
        [0, {"ticksize": 0.0001, "lotsize": 1.0, "min_order_size": 1.0, "price_precision": 4.0, "qty_precision": 0.0, "multiple": 1.0, "coin": "SNY", "base_coin": "USD", "local_name": "SNY/USD", "ct_type": false}], 
        [20220702, {"ticksize": 0.0001, "lotsize": 1.0, "min_order_size": 1.0, "price_precision": 4.0, "qty_precision": 0.0, "multiple": 1.0, "coin": "SNY", "base_coin": "USD", "local_name": "SNY/USD", "ct_type": false}], 
        [20221008, {"ticksize": 1e-05, "lotsize": 1.0, "min_order_size": 1.0, "price_precision": 5.0, "qty_precision": 0.0, "multiple": 1.0, "coin": "SNY", "base_coin": "USD", "local_name": "SNY/USD", "ct_type": false}]
    ]
}