{
    "data": [
        [0, {"ticksize": 2.5e-06, "lotsize": 100.0, "min_order_size": 100.0, "price_precision": 5.6020599913279625, "qty_precision": 2.0, "multiple": 1.0, "coin": "SPELL", "base_coin": "USD", "local_name": "SPELL/USD", "ct_type": false}], 
        [20220702, {"ticksize": 2.5e-06, "lotsize": 100.0, "min_order_size": 100.0, "price_precision": 5.6020599913279625, "qty_precision": 2.0, "multiple": 1.0, "coin": "SPELL", "base_coin": "USD", "local_name": "SPELL/USD", "ct_type": false}], 
        [20221008, {"ticksize": 1e-07, "lotsize": 100.0, "min_order_size": 100.0, "price_precision": 7.0, "qty_precision": 2.0, "multiple": 1.0, "coin": "SPELL", "base_coin": "USD", "local_name": "SPELL/USD", "ct_type": false}]
    ]
}