{
    "data": [
        [0, {"ticksize": 5e-07, "lotsize": 0.001, "min_order_size": 0.001, "price_precision": 6.301029995663981, "qty_precision": 3.0, "multiple": 1.0, "coin": "SUN", "base_coin": "USD", "local_name": "SUN/USD", "ct_type": false}], 
        [20220702, {"ticksize": 5e-07, "lotsize": 0.001, "min_order_size": 0.001, "price_precision": 6.301029995663981, "qty_precision": 3.0, "multiple": 1.0, "coin": "SUN", "base_coin": "USD", "local_name": "SUN/USD", "ct_type": false}]
    ]
}