{
    "data": [
        [0, {"ticksize": 1e-08, "lotsize": 100000000.0, "min_order_size": 100000000.0, "price_precision": 8.0, "qty_precision": 8.0, "multiple": 1.0, "coin": "SUSHIBULL", "base_coin": "USD", "local_name": "SUSHIBULL/USD", "ct_type": false}], 
        [20220702, {"ticksize": 1e-08, "lotsize": 100000000.0, "min_order_size": 100000000.0, "price_precision": 8.0, "qty_precision": 8.0, "multiple": 1.0, "coin": "SUSHIBULL", "base_coin": "USD", "local_name": "SUSHIBULL/USD", "ct_type": false}], 
        [20220718, {"ticksize": 1e-08, "lotsize": 10000000.0, "min_order_size": 10000000.0, "price_precision": 8.0, "qty_precision": 7.0, "multiple": 1.0, "coin": "SUSHIBULL", "base_coin": "USD", "local_name": "SUSHIBULL/USD", "ct_type": false}], 
        [20220719, {"ticksize": 1e-08, "lotsize": 100000000.0, "min_order_size": 100000000.0, "price_precision": 8.0, "qty_precision": 8.0, "multiple": 1.0, "coin": "SUSHIBULL", "base_coin": "USD", "local_name": "SUSHIBULL/USD", "ct_type": false}], 
        [20220811, {"ticksize": 1e-08, "lotsize": 10000000.0, "min_order_size": 10000000.0, "price_precision": 8.0, "qty_precision": 7.0, "multiple": 1.0, "coin": "SUSHIBULL", "base_coin": "USD", "local_name": "SUSHIBULL/USD", "ct_type": false}], 
        [20221008, {"ticksize": 1e-08, "lotsize": 100000000.0, "min_order_size": 100000000.0, "price_precision": 8.0, "qty_precision": 8.0, "multiple": 1.0, "coin": "SUSHIBULL", "base_coin": "USD", "local_name": "SUSHIBULL/USD", "ct_type": false}]
    ]
}