{
    "data": [
        [0, {"ticksize": 1e-06, "lotsize": 100.0, "min_order_size": 100.0, "price_precision": 6.0, "qty_precision": 2.0, "multiple": 1.0, "coin": "SWEAT", "base_coin": "USD", "local_name": "SWEAT/USD", "ct_type": false}]
    ]
}