{
    "data": [
        [0, {"ticksize": 1e-08, "lotsize": 1000000.0, "min_order_size": 1000000.0, "price_precision": 8.0, "qty_precision": 6.0, "multiple": 1.0, "coin": "SXPBULL", "base_coin": "USD", "local_name": "SXPBULL/USD", "ct_type": false}], 
        [20220702, {"ticksize": 1e-08, "lotsize": 1000000.0, "min_order_size": 1000000.0, "price_precision": 8.0, "qty_precision": 6.0, "multiple": 1.0, "coin": "SXPBULL", "base_coin": "USD", "local_name": "SXPBULL/USD", "ct_type": false}], 
        [20220703, {"ticksize": 1e-08, "lotsize": 100000.0, "min_order_size": 100000.0, "price_precision": 8.0, "qty_precision": 5.0, "multiple": 1.0, "coin": "SXPBULL", "base_coin": "USD", "local_name": "SXPBULL/USD", "ct_type": false}], 
        [20220718, {"ticksize": 1e-08, "lotsize": 1000000.0, "min_order_size": 1000000.0, "price_precision": 8.0, "qty_precision": 6.0, "multiple": 1.0, "coin": "SXPBULL", "base_coin": "USD", "local_name": "SXPBULL/USD", "ct_type": false}], 
        [20220719, {"ticksize": 1e-08, "lotsize": 100000.0, "min_order_size": 100000.0, "price_precision": 8.0, "qty_precision": 5.0, "multiple": 1.0, "coin": "SXPBULL", "base_coin": "USD", "local_name": "SXPBULL/USD", "ct_type": false}], 
        [20220811, {"ticksize": 1e-08, "lotsize": 1000000.0, "min_order_size": 1000000.0, "price_precision": 8.0, "qty_precision": 6.0, "multiple": 1.0, "coin": "SXPBULL", "base_coin": "USD", "local_name": "SXPBULL/USD", "ct_type": false}]
    ]
}