{
    "data": [
        [0, {"ticksize": 5e-06, "lotsize": 1.0, "min_order_size": 1.0, "price_precision": 5.301029995663981, "qty_precision": 0.0, "multiple": 1.0, "coin": "UBXT", "base_coin": "USD", "local_name": "UBXT/USD", "ct_type": false}], 
        [20220702, {"ticksize": 5e-06, "lotsize": 1.0, "min_order_size": 1.0, "price_precision": 5.301029995663981, "qty_precision": 0.0, "multiple": 1.0, "coin": "UBXT", "base_coin": "USD", "local_name": "UBXT/USD", "ct_type": false}], 
        [20221008, {"ticksize": 5e-07, "lotsize": 1.0, "min_order_size": 1.0, "price_precision": 6.301029995663981, "qty_precision": 0.0, "multiple": 1.0, "coin": "UBXT", "base_coin": "USD", "local_name": "UBXT/USD", "ct_type": false}]
    ]
}