{
    "data": [
        [0, {"ticksize": 0.25, "lotsize": 1e-05, "min_order_size": 1e-05, "price_precision": 0.6020599913279624, "qty_precision": 5.0, "multiple": 1.0, "coin": "USDTHALF", "base_coin": "USD", "local_name": "USDTHALF/USD", "ct_type": false}], 
        [20220702, {"ticksize": 0.25, "lotsize": 1e-05, "min_order_size": 1e-05, "price_precision": 0.6020599913279624, "qty_precision": 5.0, "multiple": 1.0, "coin": "USDTHALF", "base_coin": "USD", "local_name": "USDTHALF/USD", "ct_type": false}]
    ]
}