{
    "data": [
        [0, {"ticksize": 1e-05, "lotsize": 10.0, "min_order_size": 10.0, "price_precision": 5.0, "qty_precision": 1.0, "multiple": 1.0, "coin": "XLMBEAR", "base_coin": "USD", "local_name": "XLMBEAR/USD", "ct_type": false}], 
        [20220702, {"ticksize": 1e-05, "lotsize": 10.0, "min_order_size": 10.0, "price_precision": 5.0, "qty_precision": 1.0, "multiple": 1.0, "coin": "XLMBEAR", "base_coin": "USD", "local_name": "XLMBEAR/USD", "ct_type": false}], 
        [20220703, {"ticksize": 5e-06, "lotsize": 10.0, "min_order_size": 10.0, "price_precision": 5.301029995663981, "qty_precision": 1.0, "multiple": 1.0, "coin": "XLMBEAR", "base_coin": "USD", "local_name": "XLMBEAR/USD", "ct_type": false}], 
        [20220708, {"ticksize": 1e-05, "lotsize": 10.0, "min_order_size": 10.0, "price_precision": 5.0, "qty_precision": 1.0, "multiple": 1.0, "coin": "XLMBEAR", "base_coin": "USD", "local_name": "XLMBEAR/USD", "ct_type": false}], 
        [20220718, {"ticksize": 5e-06, "lotsize": 10.0, "min_order_size": 10.0, "price_precision": 5.301029995663981, "qty_precision": 1.0, "multiple": 1.0, "coin": "XLMBEAR", "base_coin": "USD", "local_name": "XLMBEAR/USD", "ct_type": false}], 
        [20221008, {"ticksize": 2.5e-06, "lotsize": 10.0, "min_order_size": 10.0, "price_precision": 5.6020599913279625, "qty_precision": 1.0, "multiple": 1.0, "coin": "XLMBEAR", "base_coin": "USD", "local_name": "XLMBEAR/USD", "ct_type": false}]
    ]
}