{
    "data": [
        [0, {"ticksize": 0.01, "lotsize": 0.001, "min_order_size": 0.001, "price_precision": 2.0, "qty_precision": 3.0, "multiple": 1.0, "coin": "XRPHEDGE", "base_coin": "USD", "local_name": "XRPHEDGE/USD", "ct_type": false}], 
        [20220702, {"ticksize": 0.01, "lotsize": 0.001, "min_order_size": 0.001, "price_precision": 2.0, "qty_precision": 3.0, "multiple": 1.0, "coin": "XRPHEDGE", "base_coin": "USD", "local_name": "XRPHEDGE/USD", "ct_type": false}], 
        [20220718, {"ticksize": 0.005, "lotsize": 0.001, "min_order_size": 0.001, "price_precision": 2.3010299956639813, "qty_precision": 3.0, "multiple": 1.0, "coin": "XRPHEDGE", "base_coin": "USD", "local_name": "XRPHEDGE/USD", "ct_type": false}], 
        [20220811, {"ticksize": 0.01, "lotsize": 0.001, "min_order_size": 0.001, "price_precision": 2.0, "qty_precision": 3.0, "multiple": 1.0, "coin": "XRPHEDGE", "base_coin": "USD", "local_name": "XRPHEDGE/USD", "ct_type": false}], 
        [20221008, {"ticksize": 0.005, "lotsize": 0.001, "min_order_size": 0.001, "price_precision": 2.3010299956639813, "qty_precision": 3.0, "multiple": 1.0, "coin": "XRPHEDGE", "base_coin": "USD", "local_name": "XRPHEDGE/USD", "ct_type": false}]
    ]
}