{
    "data": [
        [0, {"ticksize": 1e-08, "lotsize": 10000.0, "min_order_size": 10000.0, "price_precision": 8.0, "qty_precision": 4.0, "multiple": 1.0, "coin": "XTZBULL", "base_coin": "USDT", "local_name": "XTZBULL/USDT", "ct_type": false}], 
        [20220702, {"ticksize": 1e-08, "lotsize": 10000.0, "min_order_size": 10000.0, "price_precision": 8.0, "qty_precision": 4.0, "multiple": 1.0, "coin": "XTZBULL", "base_coin": "USDT", "local_name": "XTZBULL/USDT", "ct_type": false}], 
        [20220703, {"ticksize": 1e-08, "lotsize": 1000.0, "min_order_size": 1000.0, "price_precision": 8.0, "qty_precision": 3.0, "multiple": 1.0, "coin": "XTZBULL", "base_coin": "USDT", "local_name": "XTZBULL/USDT", "ct_type": false}], 
        [20220811, {"ticksize": 1e-08, "lotsize": 10000.0, "min_order_size": 10000.0, "price_precision": 8.0, "qty_precision": 4.0, "multiple": 1.0, "coin": "XTZBULL", "base_coin": "USDT", "local_name": "XTZBULL/USDT", "ct_type": false}]
    ]
}