{
    "data": [
        [0, {"ticksize": 0.01, "lotsize": 0.001, "min_order_size": 0.001, "price_precision": 2.0, "qty_precision": 3.0, "multiple": 1.0, "coin": "MKR", "base_coin": "USD_STABLE_COIN", "local_name": "MKRUSD-PERP", "ct_type": "standard"}]
    ]
}