{
    "data": [
        [0, {"ticksize": 1e-05, "lotsize": 1.0, "min_order_size": 1.0, "price_precision": 5.0, "qty_precision": 0.0, "multiple": 1.0, "coin": "SAND", "base_coin": "USD_STABLE_COIN", "local_name": "SANDUSD-PERP", "ct_type": "standard"}]
    ]
}