{
    "data": [
        [0, {"ticksize": 1e-07, "lotsize": 1e-06, "min_order_size": 1e-06, "price_precision": 7.0, "qty_precision": 6.0, "multiple": 1.0, "coin": "AION", "base_coin": "ETH", "local_name": "AION-ETH", "ct_type": false}], 
        [20220708, {"ticksize": 1e-07, "lotsize": 1e-06, "min_order_size": 1e-06, "price_precision": 7.0, "qty_precision": 6.0, "multiple": 1.0, "coin": "AION", "base_coin": "ETH", "local_name": "AION-ETH", "ct_type": false}]
    ]
}