{
    "data": [
        [0, {"ticksize": 0.001, "lotsize": 0.0001, "min_order_size": 0.0001, "price_precision": 3.0, "qty_precision": 4.0, "multiple": 1.0, "coin": "AR", "base_coin": "USDT", "local_name": "AR-USDT", "ct_type": false}], 
        [20220708, {"ticksize": 0.001, "lotsize": 0.0001, "min_order_size": 0.0001, "price_precision": 3.0, "qty_precision": 4.0, "multiple": 1.0, "coin": "AR", "base_coin": "USDT", "local_name": "AR-USDT", "ct_type": false}]
    ]
}