{
    "data": [
        [0, {"ticksize": 1e-06, "lotsize": 0.0001, "min_order_size": 0.0001, "price_precision": 6.0, "qty_precision": 4.0, "multiple": 1.0, "coin": "ATOM3L", "base_coin": "USDT", "local_name": "ATOM3L-USDT", "ct_type": false}], 
        [20220708, {"ticksize": 1e-06, "lotsize": 0.0001, "min_order_size": 0.0001, "price_precision": 6.0, "qty_precision": 4.0, "multiple": 1.0, "coin": "ATOM3L", "base_coin": "USDT", "local_name": "ATOM3L-USDT", "ct_type": false}]
    ]
}