{
    "data": [
        [0, {"ticksize": 0.1, "lotsize": 1e-08, "min_order_size": 1e-08, "price_precision": 1.0, "qty_precision": 8.0, "multiple": 1.0, "coin": "BTC", "base_coin": "TUSD", "local_name": "BTC-TUSD", "ct_type": false}], 
        [20220708, {"ticksize": 0.1, "lotsize": 1e-08, "min_order_size": 1e-08, "price_precision": 1.0, "qty_precision": 8.0, "multiple": 1.0, "coin": "BTC", "base_coin": "TUSD", "local_name": "BTC-TUSD", "ct_type": false}]
    ]
}