{
    "data": [
        [0, {"ticksize": 1e-06, "lotsize": 1e-07, "min_order_size": 1e-07, "price_precision": 6.0, "qty_precision": 7.0, "multiple": 1.0, "coin": "ETH", "base_coin": "BTC", "local_name": "ETH-BTC", "ct_type": false}], 
        [20220708, {"ticksize": 1e-06, "lotsize": 1e-07, "min_order_size": 1e-07, "price_precision": 6.0, "qty_precision": 7.0, "multiple": 1.0, "coin": "ETH", "base_coin": "BTC", "local_name": "ETH-BTC", "ct_type": false}]
    ]
}