{
    "data": [
        [0, {"ticksize": 1e-08, "lotsize": 0.01, "min_order_size": 0.01, "price_precision": 8.0, "qty_precision": 2.0, "multiple": 1.0, "coin": "ETN", "base_coin": "ETH", "local_name": "ETN-ETH", "ct_type": false}], 
        [20220708, {"ticksize": 1e-08, "lotsize": 0.01, "min_order_size": 0.01, "price_precision": 8.0, "qty_precision": 2.0, "multiple": 1.0, "coin": "ETN", "base_coin": "ETH", "local_name": "ETN-ETH", "ct_type": false}]
    ]
}