{
    "data": [
        [0, {"ticksize": 1e-08, "lotsize": 0.0001, "min_order_size": 0.0001, "price_precision": 8.0, "qty_precision": 4.0, "multiple": 1.0, "coin": "LIT", "base_coin": "BTC", "local_name": "LIT-BTC", "ct_type": false}], 
        [20220708, {"ticksize": 1e-08, "lotsize": 0.0001, "min_order_size": 0.0001, "price_precision": 8.0, "qty_precision": 4.0, "multiple": 1.0, "coin": "LIT", "base_coin": "BTC", "local_name": "LIT-BTC", "ct_type": false}]
    ]
}