{
    "data": [
        [0, {"ticksize": 1e-07, "lotsize": 0.0001, "min_order_size": 0.0001, "price_precision": 7.0, "qty_precision": 4.0, "multiple": 1.0, "coin": "PDEX", "base_coin": "BTC", "local_name": "PDEX-BTC", "ct_type": false}], 
        [20220708, {"ticksize": 1e-07, "lotsize": 0.0001, "min_order_size": 0.0001, "price_precision": 7.0, "qty_precision": 4.0, "multiple": 1.0, "coin": "PDEX", "base_coin": "BTC", "local_name": "PDEX-BTC", "ct_type": false}]
    ]
}