{
    "data": [
        [0, {"ticksize": 1e-08, "lotsize": 1e-05, "min_order_size": 1e-05, "price_precision": 8.0, "qty_precision": 5.0, "multiple": 1.0, "coin": "PIVX", "base_coin": "ETH", "local_name": "PIVX-ETH", "ct_type": false}], 
        [20220708, {"ticksize": 1e-08, "lotsize": 1e-05, "min_order_size": 1e-05, "price_precision": 8.0, "qty_precision": 5.0, "multiple": 1.0, "coin": "PIVX", "base_coin": "ETH", "local_name": "PIVX-ETH", "ct_type": false}]
    ]
}