{
    "data": [
        [0, {"ticksize": 0.0001, "lotsize": 1e-06, "min_order_size": 1e-06, "price_precision": 4.0, "qty_precision": 6.0, "multiple": 1.0, "coin": "USDT", "base_coin": "USDC", "local_name": "USDT-USDC", "ct_type": false}], 
        [20220708, {"ticksize": 0.0001, "lotsize": 1e-06, "min_order_size": 1e-06, "price_precision": 4.0, "qty_precision": 6.0, "multiple": 1.0, "coin": "USDT", "base_coin": "USDC", "local_name": "USDT-USDC", "ct_type": false}], 
        [20221008, {"ticksize": 1e-05, "lotsize": 0.0001, "min_order_size": 0.0001, "price_precision": 5.0, "qty_precision": 4.0, "multiple": 1.0, "coin": "USDT", "base_coin": "USDC", "local_name": "USDT-USDC", "ct_type": false}]
    ]
}