{
    "data": [
        [0, {"ticksize": 1e-05, "lotsize": 0.0001, "min_order_size": 0.0001, "price_precision": 5.0, "qty_precision": 4.0, "multiple": 1.0, "coin": "XNL", "base_coin": "USDT", "local_name": "XNL-USDT", "ct_type": false}], 
        [20220708, {"ticksize": 1e-05, "lotsize": 0.0001, "min_order_size": 0.0001, "price_precision": 5.0, "qty_precision": 4.0, "multiple": 1.0, "coin": "XNL", "base_coin": "USDT", "local_name": "XNL-USDT", "ct_type": false}]
    ]
}