{
    "data": [
        [0, {"ticksize": 1e-08, "lotsize": 1.0, "min_order_size": 1.0, "price_precision": 8.0, "qty_precision": 0.0, "multiple": 1000000.0, "coin": "SHIB", "base_coin": "USDT", "local_name": "SHIB-USDT-SWAP", "ct_type": "standard"}], 
        [20220702, {"ticksize": 1e-08, "lotsize": 1.0, "min_order_size": 1.0, "price_precision": 8.0, "qty_precision": 0.0, "multiple": 1000000.0, "coin": "SHIB", "base_coin": "USDT", "local_name": "SHIB-USDT-SWAP", "ct_type": "standard"}]
    ]
}