{
    "data": [
        [0, {"ticksize": 1e-09, "lotsize": 1.0, "min_order_size": 1.0, "price_precision": 9.0, "qty_precision": 0.0, "multiple": 100000.0, "coin": "STARL", "base_coin": "USDT", "local_name": "STARL-USDT-SWAP", "ct_type": "standard"}], 
        [20220702, {"ticksize": 1e-09, "lotsize": 1.0, "min_order_size": 1.0, "price_precision": 9.0, "qty_precision": 0.0, "multiple": 100000.0, "coin": "STARL", "base_coin": "USDT", "local_name": "STARL-USDT-SWAP", "ct_type": "standard"}]
    ]
}