{
    "data": [
        [0, {"ticksize": 1e-07, "lotsize": 1.0, "min_order_size": 1.0, "price_precision": 7.0, "qty_precision": 0.0, "multiple": 100.0, "coin": "SWEAT", "base_coin": "USDT", "local_name": "SWEAT-USDT-SWAP", "ct_type": "standard"}]
    ]
}