{
    "data": [
        [0, {"ticksize": 1e-05, "lotsize": 1.0, "min_order_size": 1.0, "price_precision": 5.0, "qty_precision": 0.0, "multiple": 100.0, "coin": "ADA", "base_coin": "USDT", "local_name": "ADA-USDT-220902", "ct_type": "standard"}]
    ]
}