{
    "data": [
        [0, {"ticksize": 0.01, "lotsize": 1.0, "min_order_size": 1.0, "price_precision": 2.0, "qty_precision": 0.0, "multiple": 0.1, "coin": "BCH", "base_coin": "USDT", "local_name": "BCH-USDT-220826", "ct_type": "standard"}]
    ]
}