{
    "data": [
        [0, {"ticksize": 0.0001, "lotsize": 1.0, "min_order_size": 1.0, "price_precision": 4.0, "qty_precision": 0.0, "multiple": 1.0, "coin": "SLP", "base_coin": "USD", "local_name": "SLPUSD", "ct_type": false}], 
        [20220702, {"ticksize": 0.0001, "lotsize": 1.0, "min_order_size": 1.0, "price_precision": 4.0, "qty_precision": 0.0, "multiple": 1.0, "coin": "SLP", "base_coin": "USD", "local_name": "SLPUSD", "ct_type": false}]
    ]
}