{
    "data": [
        [0, {"ticksize": 0.7, "lotsize": 0.01, "min_order_size": 0.01, "price_precision": 4.0, "qty_precision": 2.0, "multiple": 1.0, "coin": "USDC", "base_coin": "BUSD", "local_name": "USDCBUSD", "ct_type": false}], 
        [20220702, {"ticksize": 0.7, "lotsize": 0.01, "min_order_size": 0.01, "price_precision": 4.0, "qty_precision": 2.0, "multiple": 1.0, "coin": "USDC", "base_coin": "BUSD", "local_name": "USDCBUSD", "ct_type": false}]
    ]
}