{
    "data": [
        [0, {"ticksize": 1e-05, "lotsize": 1.0, "min_order_size": 1.0, "price_precision": 5.0, "qty_precision": 0.0, "multiple": 10.0, "coin": "RVN", "base_coin": "USDT", "local_name": "RVN-USDT", "ct_type": "standard"}], 
        [20220702, {"ticksize": 1e-05, "lotsize": 1.0, "min_order_size": 1.0, "price_precision": 5.0, "qty_precision": 0.0, "multiple": 10.0, "coin": "RVN", "base_coin": "USDT", "local_name": "RVN-USDT", "ct_type": "standard"}]
    ]
}