{
    "data": [
        [0, {"ticksize": 1.0, "lotsize": 0.1, "min_order_size": 0.1, "price_precision": 0.0, "qty_precision": 1.0, "multiple": 1.0, "coin": "ADA", "base_coin": "BIDR", "local_name": "ADABIDR", "ct_type": false}], 
        [20220702, {"ticksize": 1.0, "lotsize": 0.1, "min_order_size": 0.1, "price_precision": 0.0, "qty_precision": 1.0, "multiple": 1.0, "coin": "ADA", "base_coin": "BIDR", "local_name": "ADABIDR", "ct_type": false}]
    ]
}