{
    "data": [
        [0, {"ticksize": 0.0001, "lotsize": 0.01, "min_order_size": 0.01, "price_precision": 4.0, "qty_precision": 2.0, "multiple": 1.0, "coin": "APE", "base_coin": "USDT", "local_name": "APEUSDT", "ct_type": false}], 
        [20220702, {"ticksize": 0.0001, "lotsize": 0.01, "min_order_size": 0.01, "price_precision": 4.0, "qty_precision": 2.0, "multiple": 1.0, "coin": "APE", "base_coin": "USDT", "local_name": "APEUSDT", "ct_type": false}], 
        [20220811, {"ticksize": 0.001, "lotsize": 0.01, "min_order_size": 0.01, "price_precision": 3.0, "qty_precision": 2.0, "multiple": 1.0, "coin": "APE", "base_coin": "USDT", "local_name": "APEUSDT", "ct_type": false}]
    ]
}