{
    "data": [
        [0, {"ticksize": 0.1, "lotsize": 0.001, "min_order_size": 0.001, "price_precision": 1.0, "qty_precision": 3.0, "multiple": 1.0, "coin": "BCH", "base_coin": "BUSD", "local_name": "BCHBUSD", "ct_type": false}], 
        [20220702, {"ticksize": 0.1, "lotsize": 0.001, "min_order_size": 0.001, "price_precision": 1.0, "qty_precision": 3.0, "multiple": 1.0, "coin": "BCH", "base_coin": "BUSD", "local_name": "BCHBUSD", "ct_type": false}]
    ]
}