{
    "data": [
        [0, {"ticksize": 1e-06, "lotsize": 0.001, "min_order_size": 0.001, "price_precision": 6.0, "qty_precision": 3.0, "multiple": 1.0, "coin": "BNX", "base_coin": "BTC", "local_name": "BNXBTC", "ct_type": false}], 
        [20220702, {"ticksize": 1e-06, "lotsize": 0.001, "min_order_size": 0.001, "price_precision": 6.0, "qty_precision": 3.0, "multiple": 1.0, "coin": "BNX", "base_coin": "BTC", "local_name": "BNXBTC", "ct_type": false}]
    ]
}