{
    "data": [
        [0, {"ticksize": 0.001, "lotsize": 1.0, "min_order_size": 1.0, "price_precision": 3.0, "qty_precision": 0.0, "multiple": 1.0, "coin": "BUSD", "base_coin": "TRY", "local_name": "BUSDTRY", "ct_type": false}], 
        [20220702, {"ticksize": 0.001, "lotsize": 1.0, "min_order_size": 1.0, "price_precision": 3.0, "qty_precision": 0.0, "multiple": 1.0, "coin": "BUSD", "base_coin": "TRY", "local_name": "BUSDTRY", "ct_type": false}]
    ]
}