{
    "data": [
        [0, {"ticksize": 0.01, "lotsize": 0.1, "min_order_size": 0.1, "price_precision": 2.0, "qty_precision": 1.0, "multiple": 1.0, "coin": "C98", "base_coin": "BRL", "local_name": "C98BRL", "ct_type": false}], 
        [20220702, {"ticksize": 0.01, "lotsize": 0.1, "min_order_size": 0.1, "price_precision": 2.0, "qty_precision": 1.0, "multiple": 1.0, "coin": "C98", "base_coin": "BRL", "local_name": "C98BRL", "ct_type": false}], 
        [20220811, {"ticksize": 0.001, "lotsize": 0.1, "min_order_size": 0.1, "price_precision": 3.0, "qty_precision": 1.0, "multiple": 1.0, "coin": "C98", "base_coin": "BRL", "local_name": "C98BRL", "ct_type": false}]
    ]
}