{
    "data": [
        [0, {"ticksize": 0.01, "lotsize": 0.0001, "min_order_size": 0.0001, "price_precision": 2.0, "qty_precision": 4.0, "multiple": 1.0, "coin": "ETH", "base_coin": "GBP", "local_name": "ETHGBP", "ct_type": false}], 
        [20220702, {"ticksize": 0.01, "lotsize": 0.0001, "min_order_size": 0.0001, "price_precision": 2.0, "qty_precision": 4.0, "multiple": 1.0, "coin": "ETH", "base_coin": "GBP", "local_name": "ETHGBP", "ct_type": false}]
    ]
}