{
    "data": [
        [0, {"ticksize": 1.0, "lotsize": 1e-05, "min_order_size": 1e-05, "price_precision": 0.0, "qty_precision": 5.0, "multiple": 1.0, "coin": "ETH", "base_coin": "NGN", "local_name": "ETHNGN", "ct_type": false}], 
        [20220702, {"ticksize": 1.0, "lotsize": 1e-05, "min_order_size": 1e-05, "price_precision": 0.0, "qty_precision": 5.0, "multiple": 1.0, "coin": "ETH", "base_coin": "NGN", "local_name": "ETHNGN", "ct_type": false}]
    ]
}