{
    "data": [
        [0, {"ticksize": 1.0, "lotsize": 0.0001, "min_order_size": 0.0001, "price_precision": 0.0, "qty_precision": 4.0, "multiple": 1.0, "coin": "ETH", "base_coin": "TRY", "local_name": "ETHTRY", "ct_type": false}], 
        [20220702, {"ticksize": 1.0, "lotsize": 0.0001, "min_order_size": 0.0001, "price_precision": 0.0, "qty_precision": 4.0, "multiple": 1.0, "coin": "ETH", "base_coin": "TRY", "local_name": "ETHTRY", "ct_type": false}]
    ]
}