{
    "data": [
        [0, {"ticksize": 1e-07, "lotsize": 0.001, "min_order_size": 0.001, "price_precision": 7.0, "qty_precision": 3.0, "multiple": 1.0, "coin": "HIGH", "base_coin": "BTC", "local_name": "HIGHBTC", "ct_type": false}], 
        [20220702, {"ticksize": 1e-07, "lotsize": 0.001, "min_order_size": 0.001, "price_precision": 7.0, "qty_precision": 3.0, "multiple": 1.0, "coin": "HIGH", "base_coin": "BTC", "local_name": "HIGHBTC", "ct_type": false}], 
        [20220811, {"ticksize": 1e-08, "lotsize": 0.001, "min_order_size": 0.001, "price_precision": 8.0, "qty_precision": 3.0, "multiple": 1.0, "coin": "HIGH", "base_coin": "BTC", "local_name": "HIGHBTC", "ct_type": false}]
    ]
}