{
    "data": [
        [0, {"ticksize": 1e-05, "lotsize": 0.01, "min_order_size": 0.01, "price_precision": 5.0, "qty_precision": 2.0, "multiple": 1.0, "coin": "LINA", "base_coin": "BUSD", "local_name": "LINABUSD", "ct_type": false}], 
        [20220702, {"ticksize": 1e-05, "lotsize": 0.01, "min_order_size": 0.01, "price_precision": 5.0, "qty_precision": 2.0, "multiple": 1.0, "coin": "LINA", "base_coin": "BUSD", "local_name": "LINABUSD", "ct_type": false}]
    ]
}