{
    "data": [
        [0, {"ticksize": 0.01, "lotsize": 1e-05, "min_order_size": 1e-05, "price_precision": 2.0, "qty_precision": 5.0, "multiple": 1.0, "coin": "LTC", "base_coin": "PAX", "local_name": "LTCPAX", "ct_type": false}], 
        [20220702, {"ticksize": 0.01, "lotsize": 1e-05, "min_order_size": 1e-05, "price_precision": 2.0, "qty_precision": 5.0, "multiple": 1.0, "coin": "LTC", "base_coin": "PAX", "local_name": "LTCPAX", "ct_type": false}]
    ]
}