{
    "data": [
        [0, {"ticksize": 0.01, "lotsize": 0.1, "min_order_size": 0.1, "price_precision": 2.0, "qty_precision": 1.0, "multiple": 1.0, "coin": "MATIC", "base_coin": "RUB", "local_name": "MATICRUB", "ct_type": false}], 
        [20220702, {"ticksize": 0.01, "lotsize": 0.1, "min_order_size": 0.1, "price_precision": 2.0, "qty_precision": 1.0, "multiple": 1.0, "coin": "MATIC", "base_coin": "RUB", "local_name": "MATICRUB", "ct_type": false}]
    ]
}