{
    "data": [
        [0, {"ticksize": 1e-08, "lotsize": 0.1, "min_order_size": 0.1, "price_precision": 8.0, "qty_precision": 1.0, "multiple": 1.0, "coin": "MTL", "base_coin": "BTC", "local_name": "MTLBTC", "ct_type": false}], 
        [20220702, {"ticksize": 1e-08, "lotsize": 0.1, "min_order_size": 0.1, "price_precision": 8.0, "qty_precision": 1.0, "multiple": 1.0, "coin": "MTL", "base_coin": "BTC", "local_name": "MTLBTC", "ct_type": false}]
    ]
}