{
    "data": [
        [0, {"ticksize": 1e-05, "lotsize": 0.1, "min_order_size": 0.1, "price_precision": 5.0, "qty_precision": 1.0, "multiple": 1.0, "coin": "PHB", "base_coin": "USDC", "local_name": "PHBUSDC", "ct_type": false}], 
        [20220702, {"ticksize": 1e-05, "lotsize": 0.1, "min_order_size": 0.1, "price_precision": 5.0, "qty_precision": 1.0, "multiple": 1.0, "coin": "PHB", "base_coin": "USDC", "local_name": "PHBUSDC", "ct_type": false}]
    ]
}