{
    "data": [
        [0, {"ticksize": 0.0001, "lotsize": 0.01, "min_order_size": 0.01, "price_precision": 4.0, "qty_precision": 2.0, "multiple": 1.0, "coin": "REP", "base_coin": "BNB", "local_name": "REPBNB", "ct_type": false}], 
        [20220702, {"ticksize": 0.0001, "lotsize": 0.01, "min_order_size": 0.01, "price_precision": 4.0, "qty_precision": 2.0, "multiple": 1.0, "coin": "REP", "base_coin": "BNB", "local_name": "REPBNB", "ct_type": false}]
    ]
}