{
    "data": [
        [0, {"ticksize": 1e-05, "lotsize": 1.0, "min_order_size": 1.0, "price_precision": 5.0, "qty_precision": 0.0, "multiple": 1.0, "coin": "STMX", "base_coin": "BUSD", "local_name": "STMXBUSD", "ct_type": false}], 
        [20220702, {"ticksize": 1e-05, "lotsize": 1.0, "min_order_size": 1.0, "price_precision": 5.0, "qty_precision": 0.0, "multiple": 1.0, "coin": "STMX", "base_coin": "BUSD", "local_name": "STMXBUSD", "ct_type": false}], 
        [20220811, {"ticksize": 1e-06, "lotsize": 1.0, "min_order_size": 1.0, "price_precision": 6.0, "qty_precision": 0.0, "multiple": 1.0, "coin": "STMX", "base_coin": "BUSD", "local_name": "STMXBUSD", "ct_type": false}]
    ]
}