{
    "data": [
        [0, {"ticksize": 0.1, "lotsize": 0.01, "min_order_size": 0.01, "price_precision": 1.0, "qty_precision": 2.0, "multiple": 1.0, "coin": "UMA", "base_coin": "TRY", "local_name": "UMATRY", "ct_type": false}], 
        [20220702, {"ticksize": 0.1, "lotsize": 0.01, "min_order_size": 0.01, "price_precision": 1.0, "qty_precision": 2.0, "multiple": 1.0, "coin": "UMA", "base_coin": "TRY", "local_name": "UMATRY", "ct_type": false}]
    ]
}