{
    "data": [
        [0, {"ticksize": 0.1, "lotsize": 0.1, "min_order_size": 0.1, "price_precision": 1.0, "qty_precision": 1.0, "multiple": 1.0, "coin": "USDT", "base_coin": "NGN", "local_name": "USDTNGN", "ct_type": false}], 
        [20220702, {"ticksize": 0.1, "lotsize": 0.1, "min_order_size": 0.1, "price_precision": 1.0, "qty_precision": 1.0, "multiple": 1.0, "coin": "USDT", "base_coin": "NGN", "local_name": "USDTNGN", "ct_type": false}]
    ]
}