{
    "data": [
        [0, {"ticksize": 0.0001, "lotsize": 1e-05, "min_order_size": 1e-05, "price_precision": 4.0, "qty_precision": 5.0, "multiple": 1.0, "coin": "YFI", "base_coin": "BTC", "local_name": "YFIBTC", "ct_type": false}], 
        [20220702, {"ticksize": 0.0001, "lotsize": 1e-05, "min_order_size": 1e-05, "price_precision": 4.0, "qty_precision": 5.0, "multiple": 1.0, "coin": "YFI", "base_coin": "BTC", "local_name": "YFIBTC", "ct_type": false}]
    ]
}