{
    "data": [
        [0, {"ticksize": 1e-06, "lotsize": 1.0, "min_order_size": 1.0, "price_precision": 6.0, "qty_precision": 0.0, "multiple": 10.0, "coin": "JASMY", "base_coin": "USDT", "local_name": "JASMYUSDTM", "ct_type": "standard"}], 
        [20220718, {"ticksize": 1e-06, "lotsize": 1.0, "min_order_size": 1.0, "price_precision": 6.0, "qty_precision": 0.0, "multiple": 10.0, "coin": "JASMY", "base_coin": "USDT", "local_name": "JASMYUSDTM", "ct_type": "standard"}]
    ]
}