{
    "data": [
        [0, {"ticksize": 0.1, "lotsize": 0.0001, "min_order_size": 0.0001, "price_precision": 1.0, "qty_precision": 4.0, "multiple": 1.0, "coin": "BTC", "base_coin": "USD_STABLE_COIN", "local_name": "BTCUSD-221028", "ct_type": "standard"}]
    ]
}