{
    "data": [
        [0, {"ticksize": 0.01, "lotsize": 0.0001, "min_order_size": 0.0001, "price_precision": 2.0, "qty_precision": 4.0, "multiple": 1.0, "coin": "ETH", "base_coin": "USD_STABLE_COIN", "local_name": "ETHUSD-220826", "ct_type": "standard"}]
    ]
}