{
    "data": [
        [0, {"ticksize": 1e-10, "lotsize": 0.01, "min_order_size": 0.01, "price_precision": 10.0, "qty_precision": 2.0, "multiple": 1.0, "coin": "BRISE", "base_coin": "USDT", "local_name": "briseusdt", "ct_type": false}]
    ]
}