{
    "data": [
        [0, {"ticksize": 1e-08, "lotsize": 0.01, "min_order_size": 0.01, "price_precision": 8.0, "qty_precision": 2.0, "multiple": 1.0, "coin": "DKA", "base_coin": "ETH", "local_name": "dkaeth", "ct_type": false}], 
        [20220702, {"ticksize": 1e-08, "lotsize": 0.01, "min_order_size": 0.01, "price_precision": 8.0, "qty_precision": 2.0, "multiple": 1.0, "coin": "DKA", "base_coin": "ETH", "local_name": "dkaeth", "ct_type": false}]
    ]
}