{
    "data": [
        [0, {"ticksize": 0.0001, "lotsize": 0.0001, "min_order_size": 0.0001, "price_precision": 4.0, "qty_precision": 4.0, "multiple": 1.0, "coin": "MEDAMON", "base_coin": "USDT", "local_name": "medamonusdt", "ct_type": false}], 
        [20220703, {"ticksize": 0.0001, "lotsize": 0.0001, "min_order_size": 0.0001, "price_precision": 4.0, "qty_precision": 4.0, "multiple": 1.0, "coin": "MEDAMON", "base_coin": "USDT", "local_name": "medamonusdt", "ct_type": false}]
    ]
}