{
    "data": [
        [0, {"ticksize": 1e-12, "lotsize": 1.0, "min_order_size": 1.0, "price_precision": 12.0, "qty_precision": 0.0, "multiple": 1.0, "coin": "NFT", "base_coin": "HT", "local_name": "nftht", "ct_type": false}], 
        [20220702, {"ticksize": 1e-12, "lotsize": 1.0, "min_order_size": 1.0, "price_precision": 12.0, "qty_precision": 0.0, "multiple": 1.0, "coin": "NFT", "base_coin": "HT", "local_name": "nftht", "ct_type": false}]
    ]
}