{
    "data": [
        [0, {"ticksize": 1e-06, "lotsize": 0.0001, "min_order_size": 0.0001, "price_precision": 6.0, "qty_precision": 4.0, "multiple": 1.0, "coin": "RBTC", "base_coin": "BTC", "local_name": "rbtcbtc", "ct_type": false}], 
        [20220702, {"ticksize": 1e-06, "lotsize": 0.0001, "min_order_size": 0.0001, "price_precision": 6.0, "qty_precision": 4.0, "multiple": 1.0, "coin": "RBTC", "base_coin": "BTC", "local_name": "rbtcbtc", "ct_type": false}]
    ]
}