{
    "data": [
        [0, {"ticksize": 1e-06, "lotsize": 0.0001, "min_order_size": 0.0001, "price_precision": 6.0, "qty_precision": 4.0, "multiple": 1.0, "coin": "SAND", "base_coin": "HT", "local_name": "sandht", "ct_type": false}], 
        [20220702, {"ticksize": 1e-06, "lotsize": 0.0001, "min_order_size": 0.0001, "price_precision": 6.0, "qty_precision": 4.0, "multiple": 1.0, "coin": "SAND", "base_coin": "HT", "local_name": "sandht", "ct_type": false}]
    ]
}