{
    "data": [
        [0, {"ticksize": 1e-12, "lotsize": 0.01, "min_order_size": 0.01, "price_precision": 12.0, "qty_precision": 2.0, "multiple": 1.0, "coin": "SSP", "base_coin": "BTC", "local_name": "sspbtc", "ct_type": false}], 
        [20220702, {"ticksize": 1e-12, "lotsize": 0.01, "min_order_size": 0.01, "price_precision": 12.0, "qty_precision": 2.0, "multiple": 1.0, "coin": "SSP", "base_coin": "BTC", "local_name": "sspbtc", "ct_type": false}]
    ]
}