{
    "data": [
        [0, {"ticksize": 0.1, "lotsize": 1.0, "min_order_size": 1.0, "price_precision": 1.0, "qty_precision": 0.0, "multiple": 0.001, "coin": "BTC", "base_coin": "USDT", "local_name": "BTC-USDT-220729", "ct_type": "standard"}], 
        [20220718, {"ticksize": 0.1, "lotsize": 1.0, "min_order_size": 1.0, "price_precision": 1.0, "qty_precision": 0.0, "multiple": 0.001, "coin": "BTC", "base_coin": "USDT", "local_name": "BTC-USDT-220729", "ct_type": "standard"}]
    ]
}