{
    "data": [
        [20220702, {"ticksize": 0.001, "lotsize": 1.0, "min_order_size": 1.0, "price_precision": 3.0, "qty_precision": 0.0, "multiple": 10.0, "coin": "ETH", "base_coin": "USD", "local_name": "ETH220715", "ct_type": "inverse"}]
    ]
}