{
    "data": [
        [0, {"ticksize": 0.0001, "lotsize": 1.0, "min_order_size": 1.0, "price_precision": 4.0, "qty_precision": 0.0, "multiple": 10.0, "coin": "LINK", "base_coin": "USD", "local_name": "LINK221104", "ct_type": "inverse"}]
    ]
}