{
    "data": [
        [0, {"ticksize": 0.001, "lotsize": 1.0, "min_order_size": 1.0, "price_precision": 3.0, "qty_precision": 0.0, "multiple": 10.0, "coin": "LTC", "base_coin": "USD", "local_name": "LTC220729", "ct_type": "inverse"}], 
        [20220718, {"ticksize": 0.001, "lotsize": 1.0, "min_order_size": 1.0, "price_precision": 3.0, "qty_precision": 0.0, "multiple": 10.0, "coin": "LTC", "base_coin": "USD", "local_name": "LTC220729", "ct_type": "inverse"}]
    ]
}