{
    "data": [
        [0, {"ticksize": 1e-05, "lotsize": 1.0, "min_order_size": 1.0, "price_precision": 5.0, "qty_precision": 0.0, "multiple": 10.0, "coin": "TRX", "base_coin": "USD", "local_name": "TRX220722", "ct_type": "inverse"}], 
        [20220708, {"ticksize": 1e-05, "lotsize": 1.0, "min_order_size": 1.0, "price_precision": 5.0, "qty_precision": 0.0, "multiple": 10.0, "coin": "TRX", "base_coin": "USD", "local_name": "TRX220722", "ct_type": "inverse"}]
    ]
}