{
    "data": [
        [0, {"ticksize": 0.01, "lotsize": 1.0, "min_order_size": 1.0, "price_precision": 2.0, "qty_precision": 0.0, "multiple": 1.0, "coin": "SOL", "base_coin": "USDT", "local_name": "SOLUSDT", "ct_type": "standard"}], 
        [20220702, {"ticksize": 0.01, "lotsize": 1.0, "min_order_size": 1.0, "price_precision": 2.0, "qty_precision": 0.0, "multiple": 1.0, "coin": "SOL", "base_coin": "USDT", "local_name": "SOLUSDT", "ct_type": "standard"}]
    ]
}