{
    "data": [
        [0, {"ticksize": 1e-07, "lotsize": 1.0, "min_order_size": 1.0, "price_precision": 7.0, "qty_precision": 4.0, "multiple": 1.0, "coin": "APE", "base_coin": "BTC", "local_name": "APE-BTC", "ct_type": false}]
    ]
}