{
    "data": [
        [0, {"ticksize": 1e-05, "lotsize": 10.0, "min_order_size": 10.0, "price_precision": 5.0, "qty_precision": 4.0, "multiple": 1.0, "coin": "AZY", "base_coin": "USDC", "local_name": "AZY-USDC", "ct_type": false}]
    ]
}