{
    "data": [
        [0, {"ticksize": 0.01, "lotsize": 0.001, "min_order_size": 0.001, "price_precision": 2.0, "qty_precision": 6.0, "multiple": 1.0, "coin": "BCH", "base_coin": "USDT", "local_name": "BCH-USDT", "ct_type": false}], 
        [20220702, {"ticksize": 0.01, "lotsize": 0.001, "min_order_size": 0.001, "price_precision": 2.0, "qty_precision": 6.0, "multiple": 1.0, "coin": "BCH", "base_coin": "USDT", "local_name": "BCH-USDT", "ct_type": false}]
    ]
}