{
    "data": [
        [0, {"ticksize": 0.001, "lotsize": 1.0, "min_order_size": 1.0, "price_precision": 3.0, "qty_precision": 4.0, "multiple": 1.0, "coin": "BICO", "base_coin": "USDC", "local_name": "BICO-USDC", "ct_type": false}], 
        [20220801, {"ticksize": 0.001, "lotsize": 1.0, "min_order_size": 1.0, "price_precision": 3.0, "qty_precision": 4.0, "multiple": 1.0, "coin": "BICO", "base_coin": "USDC", "local_name": "BICO-USDC", "ct_type": false}]
    ]
}