{
    "data": [
        [0, {"ticksize": 1e-06, "lotsize": 10.0, "min_order_size": 10.0, "price_precision": 6.0, "qty_precision": 3.0, "multiple": 1.0, "coin": "BLOK", "base_coin": "USDT", "local_name": "BLOK-USDT", "ct_type": false}], 
        [20220702, {"ticksize": 1e-06, "lotsize": 10.0, "min_order_size": 10.0, "price_precision": 6.0, "qty_precision": 3.0, "multiple": 1.0, "coin": "BLOK", "base_coin": "USDT", "local_name": "BLOK-USDT", "ct_type": false}]
    ]
}