{
    "data": [
        [0, {"ticksize": 1e-09, "lotsize": 1000000.0, "min_order_size": 1000000.0, "price_precision": 9.0, "qty_precision": 0.0, "multiple": 1.0, "coin": "BTT", "base_coin": "USDT", "local_name": "BTT-USDT", "ct_type": false}], 
        [20220702, {"ticksize": 1e-09, "lotsize": 1000000.0, "min_order_size": 1000000.0, "price_precision": 9.0, "qty_precision": 0.0, "multiple": 1.0, "coin": "BTT", "base_coin": "USDT", "local_name": "BTT-USDT", "ct_type": false}]
    ]
}