{
    "data": [
        [0, {"ticksize": 1e-05, "lotsize": 0.1, "min_order_size": 0.1, "price_precision": 5.0, "qty_precision": 4.0, "multiple": 1.0, "coin": "EOS", "base_coin": "ETH", "local_name": "EOS-ETH", "ct_type": false}], 
        [20220702, {"ticksize": 1e-05, "lotsize": 0.1, "min_order_size": 0.1, "price_precision": 5.0, "qty_precision": 4.0, "multiple": 1.0, "coin": "EOS", "base_coin": "ETH", "local_name": "EOS-ETH", "ct_type": false}], 
        [20220801, {"ticksize": 1e-06, "lotsize": 0.1, "min_order_size": 0.1, "price_precision": 6.0, "qty_precision": 4.0, "multiple": 1.0, "coin": "EOS", "base_coin": "ETH", "local_name": "EOS-ETH", "ct_type": false}]
    ]
}