{
    "data": [
        [0, {"ticksize": 1e-07, "lotsize": 1000.0, "min_order_size": 1000.0, "price_precision": 7.0, "qty_precision": 0.0, "multiple": 1.0, "coin": "HYC", "base_coin": "USDT", "local_name": "HYC-USDT", "ct_type": false}], 
        [20220702, {"ticksize": 1e-07, "lotsize": 1000.0, "min_order_size": 1000.0, "price_precision": 7.0, "qty_precision": 0.0, "multiple": 1.0, "coin": "HYC", "base_coin": "USDT", "local_name": "HYC-USDT", "ct_type": false}]
    ]
}