{
    "data": [
        [0, {"ticksize": 1e-05, "lotsize": 0.1, "min_order_size": 0.1, "price_precision": 5.0, "qty_precision": 3.0, "multiple": 1.0, "coin": "LINK", "base_coin": "ETH", "local_name": "LINK-ETH", "ct_type": false}], 
        [20220702, {"ticksize": 1e-05, "lotsize": 0.1, "min_order_size": 0.1, "price_precision": 5.0, "qty_precision": 3.0, "multiple": 1.0, "coin": "LINK", "base_coin": "ETH", "local_name": "LINK-ETH", "ct_type": false}]
    ]
}