{
    "data": [
        [0, {"ticksize": 1e-09, "lotsize": 50000.0, "min_order_size": 50000.0, "price_precision": 9.0, "qty_precision": 0.0, "multiple": 1.0, "coin": "LUNC", "base_coin": "USDC", "local_name": "LUNC-USDC", "ct_type": false}], 
        [20220702, {"ticksize": 1e-09, "lotsize": 50000.0, "min_order_size": 50000.0, "price_precision": 9.0, "qty_precision": 0.0, "multiple": 1.0, "coin": "LUNC", "base_coin": "USDC", "local_name": "LUNC-USDC", "ct_type": false}], 
        [20220801, {"ticksize": 1e-08, "lotsize": 50000.0, "min_order_size": 50000.0, "price_precision": 8.0, "qty_precision": 0.0, "multiple": 1.0, "coin": "LUNC", "base_coin": "USDC", "local_name": "LUNC-USDC", "ct_type": false}], 
        [20221008, {"ticksize": 1e-08, "lotsize": 10000.0, "min_order_size": 10000.0, "price_precision": 8.0, "qty_precision": 0.0, "multiple": 1.0, "coin": "LUNC", "base_coin": "USDC", "local_name": "LUNC-USDC", "ct_type": false}]
    ]
}