{
    "data": [
        [0, {"ticksize": 1e-12, "lotsize": 500000000.0, "min_order_size": 500000000.0, "price_precision": 12.0, "qty_precision": 0.0, "multiple": 1.0, "coin": "PIT", "base_coin": "USDT", "local_name": "PIT-USDT", "ct_type": false}], 
        [20220702, {"ticksize": 1e-12, "lotsize": 500000000.0, "min_order_size": 500000000.0, "price_precision": 12.0, "qty_precision": 0.0, "multiple": 1.0, "coin": "PIT", "base_coin": "USDT", "local_name": "PIT-USDT", "ct_type": false}]
    ]
}