{
    "data": [
        [0, {"ticksize": 1e-07, "lotsize": 1000.0, "min_order_size": 1000.0, "price_precision": 7.0, "qty_precision": 2.0, "multiple": 1.0, "coin": "SAITAMA", "base_coin": "USDT", "local_name": "SAITAMA-USDT", "ct_type": false}], 
        [20220702, {"ticksize": 1e-07, "lotsize": 1000.0, "min_order_size": 1000.0, "price_precision": 7.0, "qty_precision": 2.0, "multiple": 1.0, "coin": "SAITAMA", "base_coin": "USDT", "local_name": "SAITAMA-USDT", "ct_type": false}], 
        [20220801, {"ticksize": 1e-06, "lotsize": 1000.0, "min_order_size": 1000.0, "price_precision": 6.0, "qty_precision": 2.0, "multiple": 1.0, "coin": "SAITAMA", "base_coin": "USDT", "local_name": "SAITAMA-USDT", "ct_type": false}]
    ]
}