{
    "data": [
        [0, {"ticksize": 1e-05, "lotsize": 10.0, "min_order_size": 10.0, "price_precision": 5.0, "qty_precision": 6.0, "multiple": 1.0, "coin": "SAMO", "base_coin": "USDT", "local_name": "SAMO-USDT", "ct_type": false}], 
        [20220702, {"ticksize": 1e-05, "lotsize": 10.0, "min_order_size": 10.0, "price_precision": 5.0, "qty_precision": 6.0, "multiple": 1.0, "coin": "SAMO", "base_coin": "USDT", "local_name": "SAMO-USDT", "ct_type": false}]
    ]
}