{
    "data": [
        [0, {"ticksize": 1e-10, "lotsize": 100.0, "min_order_size": 100.0, "price_precision": 10.0, "qty_precision": 1.0, "multiple": 1.0, "coin": "SWFTC", "base_coin": "BTC", "local_name": "SWFTC-BTC", "ct_type": false}], 
        [20220702, {"ticksize": 1e-10, "lotsize": 100.0, "min_order_size": 100.0, "price_precision": 10.0, "qty_precision": 1.0, "multiple": 1.0, "coin": "SWFTC", "base_coin": "BTC", "local_name": "SWFTC-BTC", "ct_type": false}]
    ]
}