{
    "data": [
        [0, {"ticksize": 1e-06, "lotsize": 100.0, "min_order_size": 100.0, "price_precision": 6.0, "qty_precision": 2.0, "multiple": 1.0, "coin": "SWFTC", "base_coin": "USDC", "local_name": "SWFTC-USDC", "ct_type": false}], 
        [20220801, {"ticksize": 1e-06, "lotsize": 100.0, "min_order_size": 100.0, "price_precision": 6.0, "qty_precision": 2.0, "multiple": 1.0, "coin": "SWFTC", "base_coin": "USDC", "local_name": "SWFTC-USDC", "ct_type": false}]
    ]
}