{
    "data": [
        [0, {"ticksize": 0.001, "lotsize": 0.1, "min_order_size": 0.1, "price_precision": 3.0, "qty_precision": 4.0, "multiple": 1.0, "coin": "THETA", "base_coin": "USDC", "local_name": "THETA-USDC", "ct_type": false}], 
        [20220702, {"ticksize": 0.001, "lotsize": 0.1, "min_order_size": 0.1, "price_precision": 3.0, "qty_precision": 4.0, "multiple": 1.0, "coin": "THETA", "base_coin": "USDC", "local_name": "THETA-USDC", "ct_type": false}]
    ]
}