{
    "data": [
        [0, {"ticksize": 1e-09, "lotsize": 100.0, "min_order_size": 100.0, "price_precision": 9.0, "qty_precision": 2.0, "multiple": 1.0, "coin": "USTC", "base_coin": "BTC", "local_name": "USTC-BTC", "ct_type": false}]
    ]
}