{
    "data": [
        [0, {"ticksize": 1e-09, "lotsize": 10.0, "min_order_size": 10.0, "price_precision": 9.0, "qty_precision": 0.0, "multiple": 1.0, "coin": "VSYS", "base_coin": "BTC", "local_name": "VSYS-BTC", "ct_type": false}], 
        [20220702, {"ticksize": 1e-09, "lotsize": 10.0, "min_order_size": 10.0, "price_precision": 9.0, "qty_precision": 0.0, "multiple": 1.0, "coin": "VSYS", "base_coin": "BTC", "local_name": "VSYS-BTC", "ct_type": false}], 
        [20220801, {"ticksize": 1e-10, "lotsize": 10.0, "min_order_size": 10.0, "price_precision": 10.0, "qty_precision": 0.0, "multiple": 1.0, "coin": "VSYS", "base_coin": "BTC", "local_name": "VSYS-BTC", "ct_type": false}]
    ]
}