{
    "data": [
        [0, {"ticksize": 0.0001, "lotsize": 0.0001, "min_order_size": 0.0001, "price_precision": 4.0, "qty_precision": 4.0, "multiple": 1.0, "coin": "WBTC", "base_coin": "BTC", "local_name": "WBTC-BTC", "ct_type": false}], 
        [20220702, {"ticksize": 0.0001, "lotsize": 0.0001, "min_order_size": 0.0001, "price_precision": 4.0, "qty_precision": 4.0, "multiple": 1.0, "coin": "WBTC", "base_coin": "BTC", "local_name": "WBTC-BTC", "ct_type": false}]
    ]
}