{
    "data": [
        [0, {"ticksize": 1e-06, "lotsize": 500.0, "min_order_size": 500.0, "price_precision": 6.0, "qty_precision": 6.0, "multiple": 1.0, "coin": "WGRT", "base_coin": "USDT", "local_name": "WGRT-USDT", "ct_type": false}], 
        [20220702, {"ticksize": 1e-06, "lotsize": 500.0, "min_order_size": 500.0, "price_precision": 6.0, "qty_precision": 6.0, "multiple": 1.0, "coin": "WGRT", "base_coin": "USDT", "local_name": "WGRT-USDT", "ct_type": false}], 
        [20220801, {"ticksize": 1e-05, "lotsize": 500.0, "min_order_size": 500.0, "price_precision": 5.0, "qty_precision": 6.0, "multiple": 1.0, "coin": "WGRT", "base_coin": "USDT", "local_name": "WGRT-USDT", "ct_type": false}]
    ]
}