{
    "data": [
        [0, {"ticksize": 0.01, "lotsize": 0.01, "min_order_size": 0.01, "price_precision": 2.0, "qty_precision": 6.0, "multiple": 1.0, "coin": "XMR", "base_coin": "USDC", "local_name": "XMR-USDC", "ct_type": false}], 
        [20220702, {"ticksize": 0.01, "lotsize": 0.01, "min_order_size": 0.01, "price_precision": 2.0, "qty_precision": 6.0, "multiple": 1.0, "coin": "XMR", "base_coin": "USDC", "local_name": "XMR-USDC", "ct_type": false}]
    ]
}