{
    "data": [
        [0, {"ticksize": 1e-06, "lotsize": 1.0, "min_order_size": 1.0, "price_precision": 6.0, "qty_precision": 3.0, "multiple": 1.0, "coin": "XRP", "base_coin": "ETH", "local_name": "XRP-ETH", "ct_type": false}], 
        [20220702, {"ticksize": 1e-06, "lotsize": 1.0, "min_order_size": 1.0, "price_precision": 6.0, "qty_precision": 3.0, "multiple": 1.0, "coin": "XRP", "base_coin": "ETH", "local_name": "XRP-ETH", "ct_type": false}]
    ]
}