{
    "data": [
        [0, {"ticksize": 0.1, "lotsize": 0.001, "min_order_size": 0.001, "price_precision": 1.0, "qty_precision": 6.0, "multiple": 1.0, "coin": "YFII", "base_coin": "USDC", "local_name": "YFII-USDC", "ct_type": false}]
    ]
}