{
    "data": [
        [0, {"ticksize": 0.01, "lotsize": 1e-08, "min_order_size": 1e-08, "price_precision": 2.0, "qty_precision": 8.0, "multiple": 1.0, "coin": "BCH", "base_coin": "GBP", "local_name": "BCH-GBP", "ct_type": false}]
    ]
}