{
    "data": [
        [0, {"ticksize": 0.001, "lotsize": 1e-06, "min_order_size": 1e-06, "price_precision": 3.0, "qty_precision": 6.0, "multiple": 1.0, "coin": "BNT", "base_coin": "EUR", "local_name": "BNT-EUR", "ct_type": false}]
    ]
}