{
    "data": [
        [0, {"ticksize": 0.001, "lotsize": 0.01, "min_order_size": 0.01, "price_precision": 3.0, "qty_precision": 2.0, "multiple": 1.0, "coin": "ELA", "base_coin": "USD", "local_name": "ELA-USD", "ct_type": false}]
    ]
}