{
    "data": [
        [0, {"ticksize": 1e-05, "lotsize": 1e-08, "min_order_size": 1e-08, "price_precision": 5.0, "qty_precision": 8.0, "multiple": 1.0, "coin": "ETH", "base_coin": "BTC", "local_name": "ETH-BTC", "ct_type": false}]
    ]
}