{
    "data": [
        [0, {"ticksize": 1.0, "lotsize": 1e-08, "min_order_size": 1e-08, "price_precision": 0.0, "qty_precision": 8.0, "multiple": 1.0, "coin": "ETH", "base_coin": "USDC", "local_name": "ETH-USDC", "ct_type": false}]
    ]
}