{
    "data": [
        [0, {"ticksize": 0.001, "lotsize": 0.001, "min_order_size": 0.001, "price_precision": 3.0, "qty_precision": 3.0, "multiple": 1.0, "coin": "FORTH", "base_coin": "GBP", "local_name": "FORTH-GBP", "ct_type": false}]
    ]
}