{
    "data": [
        [0, {"ticksize": 0.0001, "lotsize": 1e-06, "min_order_size": 1e-06, "price_precision": 4.0, "qty_precision": 6.0, "multiple": 1.0, "coin": "LRC", "base_coin": "USD", "local_name": "LRC-USD", "ct_type": false}]
    ]
}