{
    "data": [
        [0, {"ticksize": 0.0001, "lotsize": 0.1, "min_order_size": 0.1, "price_precision": 4.0, "qty_precision": 1.0, "multiple": 1.0, "coin": "MATIC", "base_coin": "GBP", "local_name": "MATIC-GBP", "ct_type": false}]
    ]
}