{
    "data": [
        [0, {"ticksize": 0.001, "lotsize": 0.01, "min_order_size": 0.01, "price_precision": 3.0, "qty_precision": 2.0, "multiple": 1.0, "coin": "OGN", "base_coin": "USD", "local_name": "OGN-USD", "ct_type": false}], 
        [20221008, {"ticksize": 1e-05, "lotsize": 0.01, "min_order_size": 0.01, "price_precision": 5.0, "qty_precision": 2.0, "multiple": 1.0, "coin": "OGN", "base_coin": "USD", "local_name": "OGN-USD", "ct_type": false}]
    ]
}