{
    "data": [
        [0, {"ticksize": 0.01, "lotsize": 0.01, "min_order_size": 0.01, "price_precision": 2.0, "qty_precision": 2.0, "multiple": 1.0, "coin": "PRO", "base_coin": "USD", "local_name": "PRO-USD", "ct_type": false}], 
        [20221008, {"ticksize": 0.0001, "lotsize": 0.01, "min_order_size": 0.01, "price_precision": 4.0, "qty_precision": 2.0, "multiple": 1.0, "coin": "PRO", "base_coin": "USD", "local_name": "PRO-USD", "ct_type": false}]
    ]
}