{
    "data": [
        [0, {"ticksize": 0.01, "lotsize": 0.01, "min_order_size": 0.01, "price_precision": 2.0, "qty_precision": 2.0, "multiple": 1.0, "coin": "XTZ", "base_coin": "EUR", "local_name": "XTZ-EUR", "ct_type": false}]
    ]
}