{
    "data": [
        [0, {"ticksize": 5e-06, "lotsize": 1.0, "min_order_size": 1.0, "price_precision": 5.301029995663981, "qty_precision": 0.0, "multiple": 1.0, "coin": "ADA", "base_coin": "USD", "local_name": "ADA-0930", "ct_type": "standard"}], 
        [20220703, {"ticksize": 5e-06, "lotsize": 1.0, "min_order_size": 1.0, "price_precision": 5.301029995663981, "qty_precision": 0.0, "multiple": 1.0, "coin": "ADA", "base_coin": "USD", "local_name": "ADA-0930", "ct_type": "standard"}]
    ]
}