{
    "data": [
        [0, {"ticksize": 0.01, "lotsize": 0.01, "min_order_size": 0.01, "price_precision": 2.0, "qty_precision": 2.0, "multiple": 1.0, "coin": "ARKK", "base_coin": "USD", "local_name": "ARKK-0930", "ct_type": "standard"}], 
        [20220703, {"ticksize": 0.01, "lotsize": 0.01, "min_order_size": 0.01, "price_precision": 2.0, "qty_precision": 2.0, "multiple": 1.0, "coin": "ARKK", "base_coin": "USD", "local_name": "ARKK-0930", "ct_type": "standard"}]
    ]
}