{
    "data": [
        [0, {"ticksize": 0.05, "lotsize": 0.001, "min_order_size": 0.001, "price_precision": 1.3010299956639813, "qty_precision": 3.0, "multiple": 1.0, "coin": "BCH", "base_coin": "USD", "local_name": "BCH-0930", "ct_type": "standard"}], 
        [20220703, {"ticksize": 0.05, "lotsize": 0.001, "min_order_size": 0.001, "price_precision": 1.3010299956639813, "qty_precision": 3.0, "multiple": 1.0, "coin": "BCH", "base_coin": "USD", "local_name": "BCH-0930", "ct_type": "standard"}]
    ]
}