{
    "data": [
        [0, {"ticksize": 1e-06, "lotsize": 10.0, "min_order_size": 10.0, "price_precision": 6.0, "qty_precision": 1.0, "multiple": 1.0, "coin": "CHZ", "base_coin": "USD", "local_name": "CHZ-1230", "ct_type": "standard"}], 
        [20221008, {"ticksize": 2.5e-05, "lotsize": 10.0, "min_order_size": 10.0, "price_precision": 4.6020599913279625, "qty_precision": 1.0, "multiple": 1.0, "coin": "CHZ", "base_coin": "USD", "local_name": "CHZ-1230", "ct_type": "standard"}]
    ]
}