{
    "data": [
        [0, {"ticksize": 0.0001, "lotsize": 0.5, "min_order_size": 0.5, "price_precision": 4.0, "qty_precision": 0.3010299956639812, "multiple": 1.0, "coin": "SUSHI", "base_coin": "USD", "local_name": "SUSHI-0930", "ct_type": "standard"}], 
        [20220703, {"ticksize": 0.0001, "lotsize": 0.5, "min_order_size": 0.5, "price_precision": 4.0, "qty_precision": 0.3010299956639812, "multiple": 1.0, "coin": "SUSHI", "base_coin": "USD", "local_name": "SUSHI-0930", "ct_type": "standard"}]
    ]
}