{
    "data": [
        [0, {"ticksize": 0.05, "lotsize": 0.005, "min_order_size": 0.005, "price_precision": 1.3010299956639813, "qty_precision": 2.3010299956639813, "multiple": 1.0, "coin": "TSM", "base_coin": "USD", "local_name": "TSM-0930", "ct_type": "standard"}], 
        [20220703, {"ticksize": 0.05, "lotsize": 0.005, "min_order_size": 0.005, "price_precision": 1.3010299956639813, "qty_precision": 2.3010299956639813, "multiple": 1.0, "coin": "TSM", "base_coin": "USD", "local_name": "TSM-0930", "ct_type": "standard"}]
    ]
}