{
    "data": [
        [0, {"ticksize": 0.005, "lotsize": 0.05, "min_order_size": 0.05, "price_precision": 2.3010299956639813, "qty_precision": 1.3010299956639813, "multiple": 1.0, "coin": "UBER", "base_coin": "USD", "local_name": "UBER-1230", "ct_type": "standard"}]
    ]
}