{
    "data": [
        [0, {"ticksize": 0.0005, "lotsize": 0.5, "min_order_size": 0.5, "price_precision": 3.3010299956639813, "qty_precision": 0.3010299956639812, "multiple": 1.0, "coin": "WAVES", "base_coin": "USD", "local_name": "WAVES-1230", "ct_type": "standard"}]
    ]
}