{
    "data": [
        [0, {"ticksize": 0.0001, "lotsize": 10.0, "min_order_size": 10.0, "price_precision": 4.0, "qty_precision": 1.0, "multiple": 1.0, "coin": "AMPL", "base_coin": "USD", "local_name": "AMPL-PERP", "ct_type": "standard"}]
    ]
}