{
    "data": [
        [0, {"ticksize": 0.01, "lotsize": 0.0001, "min_order_size": 0.0001, "price_precision": 2.0, "qty_precision": 4.0, "multiple": 1.0, "coin": "COMP", "base_coin": "USD", "local_name": "COMP-PERP", "ct_type": "standard"}]
    ]
}