{
    "data": [
        [0, {"ticksize": 1e-06, "lotsize": 100.0, "min_order_size": 100.0, "price_precision": 6.0, "qty_precision": 2.0, "multiple": 1.0, "coin": "DENT", "base_coin": "USD", "local_name": "DENT-PERP", "ct_type": "standard"}], 
        [20221008, {"ticksize": 1e-07, "lotsize": 100.0, "min_order_size": 100.0, "price_precision": 7.0, "qty_precision": 2.0, "multiple": 1.0, "coin": "DENT", "base_coin": "USD", "local_name": "DENT-PERP", "ct_type": "standard"}]
    ]
}