{
    "data": [
        [0, {"ticksize": 5e-07, "lotsize": 100.0, "min_order_size": 100.0, "price_precision": 6.301029995663981, "qty_precision": 2.0, "multiple": 1.0, "coin": "KSOS", "base_coin": "USD", "local_name": "KSOS-PERP", "ct_type": "standard"}]
    ]
}