{
    "data": [
        [0, {"ticksize": 5e-06, "lotsize": 10.0, "min_order_size": 10.0, "price_precision": 5.301029995663981, "qty_precision": 1.0, "multiple": 1.0, "coin": "RSR", "base_coin": "USD", "local_name": "RSR-PERP", "ct_type": "standard"}]
    ]
}