{
    "data": [
        [0, {"ticksize": 5e-05, "lotsize": 1.0, "min_order_size": 1.0, "price_precision": 4.301029995663981, "qty_precision": 0.0, "multiple": 1.0, "coin": "SAND", "base_coin": "USD", "local_name": "SAND-PERP", "ct_type": "standard"}]
    ]
}