{
    "data": [
        [0, {"ticksize": 2.5e-05, "lotsize": 10.0, "min_order_size": 10.0, "price_precision": 4.6020599913279625, "qty_precision": 1.0, "multiple": 1.0, "coin": "SLP", "base_coin": "USD", "local_name": "SLP-PERP", "ct_type": "standard"}], 
        [20221008, {"ticksize": 5e-07, "lotsize": 10.0, "min_order_size": 10.0, "price_precision": 6.301029995663981, "qty_precision": 1.0, "multiple": 1.0, "coin": "SLP", "base_coin": "USD", "local_name": "SLP-PERP", "ct_type": "standard"}]
    ]
}