{
    "data": [
        [0, {"ticksize": 0.0005, "lotsize": 0.1, "min_order_size": 0.1, "price_precision": 3.3010299956639813, "qty_precision": 1.0, "multiple": 1.0, "coin": "SXP", "base_coin": "USD", "local_name": "SXP-PERP", "ct_type": "standard"}], 
        [20221008, {"ticksize": 0.0005, "lotsize": 5e-05, "min_order_size": 5e-05, "price_precision": 3.3010299956639813, "qty_precision": 4.301029995663981, "multiple": 1.0, "coin": "SXP", "base_coin": "USD", "local_name": "SXP-PERP", "ct_type": "standard"}]
    ]
}