{
    "data": [
        [0, {"ticksize": 5e-05, "lotsize": 0.1, "min_order_size": 0.1, "price_precision": 4.301029995663981, "qty_precision": 1.0, "multiple": 1.0, "coin": "TOMO", "base_coin": "USD", "local_name": "TOMO-PERP", "ct_type": "standard"}]
    ]
}