{
    "data": [
        [0, {"ticksize": 0.25, "lotsize": 0.001, "min_order_size": 0.001, "price_precision": 0.6020599913279624, "qty_precision": 3.0, "multiple": 1.0, "coin": "YFII", "base_coin": "USD", "local_name": "YFII-PERP", "ct_type": "standard"}]
    ]
}