{
    "data": [
        [0, {"ticksize": 1e-09, "lotsize": 1.0, "min_order_size": 1.0, "price_precision": 9.0, "qty_precision": 0.0, "multiple": 1.0, "coin": "ADA", "base_coin": "BTC", "local_name": "ADA_BTC", "ct_type": false}]
    ]
}