{
    "data": [
        [0, {"ticksize": 0.0001, "lotsize": 0.01, "min_order_size": 0.01, "price_precision": 4.0, "qty_precision": 2.0, "multiple": 1.0, "coin": "APE", "base_coin": "USDC", "local_name": "APE_USDC", "ct_type": false}]
    ]
}