{
    "data": [
        [0, {"ticksize": 1e-07, "lotsize": 0.001, "min_order_size": 0.001, "price_precision": 7.0, "qty_precision": 3.0, "multiple": 1.0, "coin": "AVAX", "base_coin": "BTC", "local_name": "AVAX_BTC", "ct_type": false}]
    ]
}