{
    "data": [
        [0, {"ticksize": 0.001, "lotsize": 0.001, "min_order_size": 0.001, "price_precision": 3.0, "qty_precision": 3.0, "multiple": 1.0, "coin": "BADGER", "base_coin": "USDT", "local_name": "BADGER_USDT", "ct_type": false}]
    ]
}