{
    "data": [
        [0, {"ticksize": 1e-10, "lotsize": 1.0, "min_order_size": 1.0, "price_precision": 10.0, "qty_precision": 0.0, "multiple": 1.0, "coin": "ELON", "base_coin": "USDC", "local_name": "ELON_USDC", "ct_type": false}]
    ]
}