{
    "data": [
        [0, {"ticksize": 1e-09, "lotsize": 0.01, "min_order_size": 0.01, "price_precision": 9.0, "qty_precision": 2.0, "multiple": 1.0, "coin": "GLMR", "base_coin": "BTC", "local_name": "GLMR_BTC", "ct_type": false}]
    ]
}