{
    "data": [
        [0, {"ticksize": 1e-10, "lotsize": 0.1, "min_order_size": 0.1, "price_precision": 10.0, "qty_precision": 1.0, "multiple": 1.0, "coin": "GRT", "base_coin": "BTC", "local_name": "GRT_BTC", "ct_type": false}]
    ]
}