{
    "data": [
        [0, {"ticksize": 1e-06, "lotsize": 1.0, "min_order_size": 1.0, "price_precision": 6.0, "qty_precision": 0.0, "multiple": 1.0, "coin": "ZBC", "base_coin": "USDT", "local_name": "ZBC_USDT", "ct_type": false}]
    ]
}